…
## <span style="color:#88398A"> Ejemplo `gather`  </span> 
`gather`  toma muchas columnas y las collapsa en base al key-value. Usamos gather cuando tenemos columnas que no son variables.

```{r echo = TRUE, eval = FALSE}

gather(data = stocks, key  = stock, value = price, -time)
# A tibble: 30 x 3
         time      stock      price
       <date>      <chr>      <dbl>
 1 2009-01-01 Montevideo  0.2052207
 2 2009-01-02 Montevideo -0.1087310
 3 2009-01-03 Montevideo  1.1772593
 4 2009-01-04 Montevideo -0.4629862
 5 2009-01-05 Montevideo -0.9197529
 6 2009-01-06 Montevideo -2.5396264
# ... with 24 more rows
…
## <span style="color:#88398A">`arrange`</span>
- Reordena las filas de un data frame
- desc()  ordena las filas en orden descendente


```{r echo=TRUE, eval=FALSE}
arrange(mtcars, desc(mpg) )

# A tibble: 32 x 11
     mpg   cyl  disp    hp  drat    wt  qsec    vs    am  gear  carb
   <dbl> <int> <dbl> <int> <dbl> <dbl> <dbl> <int> <int> <int> <int>
 1  33.9     4  71.1    65  4.22 1.835 19.90     1     1     4     1
 2  32.4     4  78.7    66  4.08 2.200 19.47     1     1     4     1
 3  30.4     4  75.7    52  4.93 1.615 18.52     1     1     4     2
 4  30.4     4  95.1   113  3.77 1.513 16.90     1     1     5     2
 5  27.3     4  79.0    66  4.08 1.935 18.90     1     1     4     1
 6  26.0     4 120.3    91  4.43 2.140 16.70     0     1     5     2
 7  24.4     4 146.7    62  3.69 3.190 20.00     1     0     4     2
 8  22.8     4 108.0    93  3.85 2.320 18.61     1     1     4     1
 9  22.8     4 140.8    95  3.92 3.150 22.90     1     0     4     2
10  21.5     4 120.1    97  3.70 2.465 20.01     1     0     3     1
# ... with 22 more rows
…
